       ______  __  __  ____
      /\__  _\/\ \/\ \/\  _`\
      \/_/\ \/\ \ \_\ \ \ \L\_\
         \ \ \ \ \  _  \ \  _\L
          \ \ \ \ \ \ \ \ \ \L\ \
           \ \_\ \ \_\ \_\ \____/
            \/_/  \/_/\/_/\/___/

__      __  ______   __  __  __  __  ____    ____
/\ \  __/\ \/\__  _\ /\ \/\ \/\ \/\ \/\  _`\ /\  _`\
\ \ \/\ \ \ \/_/\ \/ \ \ `\\ \ \ `\\ \ \ \L\_\ \ \L\ \
 \ \ \ \ \ \ \ \ \ \  \ \ , ` \ \ , ` \ \  _\L\ \ ,  /
  \ \ \_/ \_\ \ \_\ \__\ \ \`\ \ \ \`\ \ \ \L\ \ \ \\ \
   \ `\___x___/ /\_____\\ \_\ \_\ \_\ \_\ \____/\ \_\ \_\
    '\/__//__/  \/_____/ \/_/\/_/\/_/\/_/\/___/  \/_/\/ /



      ______  ____           ____
     /\__  _\/\  _`\        /\  _`\
     \/_/\ \/\ \,\L\_\      \ \ \L\ \
        \ \ \ \/_\__ \       \ \  _ <'
         \_\ \__/\ \L\ \      \ \ \L\ \
         /\_____\ `\____\      \ \____/
         \/_____/\/_____/       \/___/
